<?xml version="1.0" encoding="utf-8"?>
<!-- Generator: Adobe Illustrator 19.2.0, SVG Export Plug-In . SVG Version: 6.00 Build 0)  -->
<svg version="1.1" id="Layer_1" xmlns="http://www.w3.org/2000/svg" xmlns:xlink="http://www.w3.org/1999/xlink" x="0px" y="0px"
	 viewBox="0 0 312.9 281.9" style="enable-background:new 0 0 312.9 281.9;" xml:space="preserve">
<style type="text/css">
	.st0{clip-path:url(#SVGID_2_);}
	.st1{opacity:0.60;clip-path:url(#SVGID_4_);}
	.st2{clip-path:url(#SVGID_6_);fill:#FFFFFF;}
</style>
<g>
	<defs>
		<rect id="SVGID_1_" width="312.9" height="281.9"/>
	</defs>
	<clipPath id="SVGID_2_">
		<use xlink:href="#SVGID_1_"  style="overflow:visible;"/>
	</clipPath>
	<g class="st0">
		<defs>
			<rect id="SVGID_3_" width="312.9" height="281.9"/>
		</defs>
		<clipPath id="SVGID_4_">
			<use xlink:href="#SVGID_3_"  style="overflow:visible;"/>
		</clipPath>
		<g class="st1">
			<g>
				<defs>
					<rect id="SVGID_5_" width="312.9" height="281.9"/>
				</defs>
				<clipPath id="SVGID_6_">
					<use xlink:href="#SVGID_5_"  style="overflow:visible;"/>
				</clipPath>
				<path class="st2" d="M142.1,45.2c9.8,0,20.3,0.5,31.6,1.5c0.5-0.6,1-1.2,1.6-1.9c8.8-10.8,12.5-20.7,9.9-25.9
					c-2.2-4.4-8.8-5-13.8-4.7l0,0c-18.1,6.5-39.6,19.7-57.5,32.4C122.4,45.7,131.9,45.2,142.1,45.2 M177.4,47.1
					c0.8,0.1,1.5,0.2,2.3,0.2c13.1-8,22.6-16,25.9-22.8c2.1-4.5,1.4-7.9-2.5-10.9c-5.5-4.2-13.8-4.4-23.6-2c4,0.9,6.8,2.9,8.3,5.8
					c3.3,6.5-0.4,17.2-10.2,29.3C177.6,46.9,177.5,47,177.4,47.1 M167.2,57.9c-0.3,0.2-0.5,0.5-0.8,0.7c2-0.3,4.1-0.6,6.1-0.9
					c2-0.3,4-0.6,6.1-0.8c7.4-1.2,15.4-2.4,23.5-3.4c-3.4-0.6-7-1.1-10.8-1.6c-3.7-0.5-7.4-1-11-1.4C176.3,53,171.9,55.5,167.2,57.9
					 M250.7,54c2.9,1,5,2.4,6.2,4.3c0.8,1.3,1.2,2.8,1.1,4.4c2.7-1.6,4.9-3.2,6.3-4.8c0.5-0.6,0.7-1.1,0.6-1.2
					C264.8,56.3,263.5,54.3,250.7,54 M225.1,54.9c12.6,3.1,21.4,6.7,26.5,10.8c1-0.4,1.9-0.8,2.8-1.2c0.7-1.6,0.7-3,0.1-4.2
					c-1.1-2.1-5.6-5.6-23.7-5.6c-0.6,0-1.4,0-2.1,0C227.5,54.7,226.3,54.8,225.1,54.9 M125.5,71.8c1.3,0,2.7,0,4.1,0
					c3-1.2,5.9-2.4,8.8-3.6c-5.1,1.2-10,2.4-14.6,3.6C124.3,71.8,124.9,71.8,125.5,71.8 M136.5,72c1.8,0.1,3.7,0.1,5.5,0.2
					c4.1-2.2,8.1-4.8,11.9-7.5c-0.4,0.1-0.9,0.2-1.3,0.3C147.4,67.4,142,69.8,136.5,72 M108.4,50.5c-5.8,4.2-11,8.3-15.5,12
					c-4.8,4-7.4,7.5-7.5,10.4c20.3-4.4,45.2-8.9,70.7-12.8c3.1-1.5,6.1-3,9-4.5c2.1-1.9,4.1-3.9,6-6C147,47.6,125.9,48.2,108.4,50.5
					 M123.2,68.7c-10.1,1.8-19.8,3.7-28.9,5.5c4.7-0.9,10-1.5,15.8-1.9C114.4,71,118.8,69.8,123.2,68.7 M86.4,75.8
					c0.1,0.1,0.1,0.2,0.2,0.2c0.6-0.2,1.3-0.4,2-0.6c1.1-0.3,2.1-0.6,3.3-0.8C90,75.1,88.1,75.5,86.4,75.8 M147.7,72.6
					c16.8,1.1,34.7,3.3,51.6,6.2c18.9-3.1,36.4-7.1,48.8-11.7c-5.3-3.6-15.3-7.6-33.5-11.3c-10.3,1-21.5,2.2-33,3.8
					c-6.9,1.1-13.8,2.4-20.7,3.8C156.8,66.7,152.3,69.8,147.7,72.6 M89.6,78.4c0.4,0.2,0.8,0.4,1.3,0.6c1.3-0.6,2.8-1.3,4.5-1.9
					C93.3,77.5,91.4,78,89.6,78.4 M102.1,51.4c-27,4.4-44.5,12.8-50.5,20.8C50.3,74,48.9,76.6,50,79c0.4,0.8,1,1.6,1.9,2.2
					c7.7-2.4,18.1-5,30.4-7.7c-0.3-4,2.7-8.5,8.7-13.4C91.7,59.5,95.8,56.2,102.1,51.4 M95,80.6c0.2,0.1,0.4,0.1,0.6,0.2
					c1.9,0.5,3.8,0.9,5.8,1.1c6.5-2,13.2-4.4,19.9-6.8c-3.7,0.1-7.2,0.2-10.6,0.4C104.3,77.3,99,79,95,80.6 M128.9,75
					c-6.7,2.6-13.5,5-20.2,7.2c9-0.2,18.4-2.8,27.5-7C133.7,75.1,131.3,75,128.9,75 M208.5,80.5c6.7,1.3,13.1,2.7,19.1,4.2
					c9.9-3.5,18-8.4,23.5-15.1c0,0-0.1-0.1-0.1-0.1C240,73.8,225,77.5,208.5,80.5 M87.9,84.2c0.7,0.3,1.6,0.6,2.6,0.9
					c1.4-0.4,2.9-0.8,4.4-1.2c-0.1,0-0.1,0-0.2-0.1c-1.5-0.4-2.8-0.8-4-1.3C89.4,83.1,88.4,83.7,87.9,84.2 M55.6,83.3
					c2.4,0.9,5.5,1.5,9.1,1.8c1.3,0.1,2.7,0.2,4.2,0.4c2.6-2.9,7.1-5.8,14.4-8.4c-0.1-0.2-0.2-0.4-0.3-0.5
					C72.3,78.9,62.9,81.2,55.6,83.3 M96.6,86c18.1,1.8,57-0.4,92.9-5.7c-15.7-2.4-31.9-4-47-4.8c-13.7,7.3-28.6,11.3-42.2,9.4
					C99.1,85.2,97.8,85.6,96.6,86 M73.2,85.9c3.2,0.3,6.6,0.7,10.2,1c0.7-0.2,1.4-0.4,2.2-0.5c-1.1-0.8-1-1.9-1-2.3
					c0.1-1,1.2-2.1,3-3.2c-0.7-0.4-1.3-0.8-1.8-1.2C80.3,81.4,76,83.5,73.2,85.9 M232.7,86c3,0.8,5.8,1.6,8.5,2.4
					c8.1-4.8,12.6-9.5,12.5-13.7c0-0.8-0.2-1.7-0.7-2.6C248,78,241,82.5,232.7,86 M70.4,88.7c-0.3,0.4-0.5,0.7-0.7,1.1
					c1.3-0.2,2.6-0.5,4-0.7C72.6,88.9,71.5,88.8,70.4,88.7 M39.6,89.8c0.3,0.2,0.9,0.5,2.3,0.8c5.9,1.4,14.3,1.2,24.1-0.3
					c0.2-0.6,0.5-1.3,0.8-2c-0.8-0.1-1.6-0.1-2.4-0.2c-5.8-0.5-10.3-1.7-13.3-3.6C44.7,86.7,40.6,88.4,39.6,89.8 M106.7,89.3
					c37.4,3.6,83.9,6.4,115.7-2.9c-7.1-1.6-14.7-3.1-22.5-4.5C166.8,87.2,129.5,89.8,106.7,89.3 M206.4,99.4
					c3.2,0.2,6.3,0.3,9.4,0.5c8.7-3.1,16.2-6.4,22.1-9.6c-3.1-0.9-6.4-1.7-9.8-2.6c-38.5,13.5-101,6.9-142.2,2.6
					c-1.4-0.1-2.7-0.3-4-0.4c-4.6,1.1-9,2-13.1,2.7c-0.1,0.9-0.1,1.8,0.1,2.7c0.2,1,0.7,2.1,1.3,3.1
					C106.1,94.5,159.6,94.8,206.4,99.4 M72.3,101.2c1.2,1.2,2.6,2.5,4.2,3.6c16.2-3.2,39.2-5.1,64.1-6
					C115.5,98.4,91.6,99.1,72.3,101.2 M223.3,100.4c17,1.3,32.1,3.2,43.4,5.8c1.7,0.4,3.3,0.8,4.8,1.2c-2.2-5.4-13.3-10.9-29.3-15.8
					C236.9,94.7,230.4,97.7,223.3,100.4 M80.3,107.2c9.4,5.3,23.9,9.3,41.3,10.3c-0.4-0.3-0.8-0.5-1.1-0.8c-1.7-1.3-2.4-2.7-2.1-4.2
					c0.4-2,2.7-3.6,7.1-4.8c9-2.5,27.7-0.6,49.6,3.9c11.6-2.7,22.4-5.6,32-8.7c-2.6-0.3-5.3-0.5-7.9-0.8
					C156.3,100.4,108.4,102.3,80.3,107.2 M129.6,117.7c10,0,20.5-0.9,31.5-3.1c2.1-0.4,4.2-0.8,6.2-1.3c-18.4-3.4-33.5-4.7-41-2.6
					c-4.5,1.2-4.8,2.4-4.8,2.4c0,0.1,0.1,0.5,1,1.1C123.9,115.4,126.4,116.6,129.6,117.7 M182.2,113.1c14.8,3.3,30.7,7.5,46,12.3
					c13.5-1.5,25.8-4.2,35.4-8.6c2.5-1.2,4.4-2.3,5.8-3.5c-14.8-4-33.9-7.2-54.8-9.6C204.1,107.3,192.8,110.5,182.2,113.1
					 M139.7,120.5c19.7,4.5,51.6,7.6,80.3,5.6c-15.2-4.4-30.8-8.4-45-11.3c-4.7,1.1-9.1,2-13.3,2.8
					C154.2,119.1,146.8,120,139.7,120.5 M68.6,101.6c-11.7,1.4-21.4,3.3-28.3,5.8c-4.7,1.7-10.2,4.4-10,8c0.1,2.8,3.8,6.1,10.4,9.3
					c6.3,3.1,15.1,6,25.6,8.7c-5.1-3.5-8.9-6.9-11.1-10c-3.5-4.8-2.5-8.1-1-10c2.3-3.1,8.9-5.7,18.5-7.9
					C71,104.3,69.7,103,68.6,101.6 M235.4,127.6c10.1,3.3,19.8,6.7,28.6,10.2c7.3-2.4,13.5-5.3,18.4-8.7c3.1-2.2,6.7-5.5,6.1-8.6
					c0-0.2-0.1-0.4-0.2-0.7c-4.2-2-9.5-3.9-15.5-5.6c-1.7,1.9-4.3,3.7-7.9,5.3C256.6,123.4,246.5,126,235.4,127.6 M122.7,126.9
					c18.2,0,40.7,2.8,66,8.4c13,2.9,25.8,6.2,37.7,9.9c12.2-1.3,23.5-3.3,33.2-6c-9.6-3.6-20.3-7.2-31.3-10.6
					c-36.2,4-79.6-1.2-99.1-7.8c-22.9-0.1-42.3-5.3-53.5-12.7c-10.1,2-17,4.5-19.2,7.4c-0.4,0.6-1.8,2.4,1.1,6.3
					c2.9,4.1,9.5,9,18.8,14.2c1.3,0.3,2.6,0.6,3.9,0.8c1.5-1.2,3.2-2.3,5.1-3.3C93.8,129.1,106.6,126.9,122.7,126.9 M37.3,136.7
					c-6.7,0-11.9,0.8-15.1,2.5c-0.9,0.5-2.3,1.4-2.3,2.3c0,0.5,0.5,1.9,4.6,4.3c4-1.5,8.7-2.9,14.2-4.3c6.3-1.6,15.4-2.2,26.5-2
					C54.4,137.7,44.9,136.7,37.3,136.7 M84.4,137.6c38.5,7.5,90.6,11.7,133.2,8.4c-48.2-14-106.1-22.5-130.9-9.8
					C86,136.7,85.2,137.1,84.4,137.6 M268.3,139.5c6.4,2.6,12.1,5.2,17.1,7.7c5.7-3.2,10.1-6.8,13-10.9c2.4-3.3,2.4-6.2,0.2-9.3
					c-1.5-1.9-3.8-3.8-6.9-5.6c-0.2,3.3-2.7,6.6-7.5,10C279.9,134.6,274.6,137.2,268.3,139.5 M233.6,147.5
					c9.5,3.1,18.4,6.4,26.3,9.7c8.6-2.4,16.2-5.2,22.5-8.4c-5.2-2.6-11.4-5.2-18.2-7.9C255.5,143.7,245.3,145.9,233.6,147.5
					 M28.4,147.7c0.5,0.2,1.1,0.5,1.6,0.7c10.2,4.4,26.4,9,45.9,13.6c-2.3-2.8-3.5-5.6-3.5-8.4c0-4,0.8-7.5,2.6-10.6
					c-15.2-0.8-27.6-0.5-35.4,1.5C35.2,145.6,31.5,146.7,28.4,147.7 M149.5,149c25.7,4.5,51.6,10,73.4,15.6
					c11.4-1.6,22.2-3.6,31.8-6.1c-8.8-3.5-18.6-7-29-10.2c-18.8,2-40.7,2.5-64.9,1.3C157,149.5,153.2,149.3,149.5,149 M113.9,146.8
					c15.9,4,30.5,8.2,40.8,11.2c11.5,3.4,22.8,6.9,33.8,10.5c8.8-0.7,17.5-1.6,25.9-2.6C183.9,158.4,146.8,151.2,113.9,146.8
					 M96.5,145.7c21.2,9.1,49,18,78.7,23.7c1.7-0.1,3.3-0.2,4.9-0.3C152.6,160.3,122.9,151.8,96.5,145.7 M264.5,159.2
					c8.1,3.6,15,7.2,20.3,10.7c3.8-0.9,7.5-2,11.1-3.2c5.5-1.8,4.9-3.8,4.7-4.5c-1-3.3-6.4-7.3-14.7-11.7
					C279.9,153.9,272.6,156.8,264.5,159.2 M24.3,149.2c-11.5,4.5-12.3,8-12.2,9.2c0.4,4.3,13.3,9.5,37.1,10.9
					c11.2,0.7,24,1.2,37.8,1.5c-2.7-1.6-5.1-3.2-7.1-4.8c-22.2-5-40.5-10.1-51.1-14.7C27.1,150.6,25.6,149.9,24.3,149.2 M93.7,171
					c3.4,0.1,6.9,0.1,10.4,0.1c-5.5-1.1-11-2.2-16.2-3.4C89.6,168.8,91.6,169.9,93.7,171 M81.6,163.3c12,2.7,25,5.3,38.4,7.8
					c14.2-0.1,28.9-0.4,43.5-1.1c-31.1-6.7-59.5-16.5-79.8-26.5c-1.8-0.1-3.5-0.3-5.2-0.4c-2,2.9-3,6.4-3,10.4
					c0,2.8,1.7,5.7,4.9,8.7C80.8,162.6,81.2,163,81.6,163.3 M230.7,166.8c9.7,2.6,18.4,5.3,25.6,7.8c8.3-0.7,16.3-1.9,24.2-3.6
					c-5.5-3.3-12.6-6.8-20.8-10.3C250.8,163.1,241.1,165.1,230.7,166.8 M204.4,173.7c14.6,1.6,29.4,2.2,43.7,1.4
					c-7.4-2.3-15.9-4.7-25.3-7.2c-8.6,1.2-17.5,2.2-26.6,3C199,171.9,201.7,172.8,204.4,173.7 M119.8,179.8c13.6,0,29,0.7,44.7,2
					c-14.8-2.3-29.9-4.9-44.5-7.6c-6.8,0-13.4,0-19.6-0.1c4.5,2,9.5,3.9,14.9,5.7C116.8,179.8,118.3,179.8,119.8,179.8 M136,174
					c34.9,6.1,70.9,11,97.6,13.5c-9.4-3.5-20-7.3-31.2-11.1c-8.8-1-17.6-2.3-26.3-3.9C162.4,173.3,148.9,173.8,136,174 M244.7,188.4
					c16.8,1.2,28.2,1,30.5-1c0.1-0.1,0-0.7-1.9-2c-3.4-2.3-9.6-5-17.7-7.8c-13,1-26.5,0.9-40.1,0C226.1,181.3,236,185,244.7,188.4
					 M253.4,191.9c5.2,2.2,9.9,4.2,13.8,6.1c0.9-0.2,1.9-0.5,2.8-0.7c19.9-5.3,23.5-10,23.9-12.3c0.4-2.7-2.5-6.5-8.2-10.7
					c-0.5-0.3-1-0.7-1.5-1c-6.9,1.6-14.1,2.8-21.5,3.6c8.5,3.3,14,6.4,15.3,8.9c0.8,1.4,0.5,2.9-0.8,4
					C274.9,191.8,266.2,192.4,253.4,191.9 M215.4,188.7c16.2,3.2,30,7.3,38.8,12.1c2.7-0.6,5.4-1.1,8-1.7
					c-4.8-2.2-10.9-4.8-18.6-7.8C235.3,190.8,225.8,189.9,215.4,188.7 M124.8,182.9c32.3,9.9,74.2,17.7,106.6,21.8
					c6.1-0.9,12-1.8,17.6-2.9C227.5,192.1,179.6,183.4,124.8,182.9 M242,206c6,0.7,11.5,1.2,16.4,1.6c-1.3-1.2-3-2.3-5-3.5
					C249.8,204.7,246,205.4,242,206 M262.8,207.9c5.5,0.3,10.1,0.4,13.4,0.2c0.8,0,1.3-0.1,1.7-0.2c-1-1.1-4.2-3.3-11.1-6.6
					c-2.7,0.7-5.7,1.3-8.7,1.9C260.1,204.7,261.7,206.2,262.8,207.9 M103.4,191.6c27.8,0,65.8,7.1,97.7,16.7c6.4-0.6,12.8-1.3,19-2
					c-33.8-4.9-74.8-13.1-104.9-23.3c-37.1,0.4-61.5,5.5-65.8,13.8c-0.7,1.4-0.6,2.5,0.3,3.7c1.9,2.4,7.2,4.4,14.9,6.1
					c0.3-1.7,1.1-3.4,2.4-5C72.1,194.5,85.7,191.6,103.4,191.6 M106.6,198.1c22.2,0,52.1,4.8,75.3,11.7c3.4-0.2,6.8-0.5,10.2-0.7
					c-49.8-13.7-111.4-20.9-122.7-5.8c-1,1.3-1.6,2.6-1.8,3.8c2.5,0.5,5.2,0.9,8.1,1.3c0.8-3.3,3.6-6,7.9-7.5
					C89.3,198.9,97.3,198.1,106.6,198.1 M78.9,208.7c23.5,2.8,58,3.4,93.3,1.6c-31.4-7.9-71.2-12.1-87.5-6.5
					C81.5,204.9,79.6,206.5,78.9,208.7 M68,210.6c0,0.1,0.1,0.1,0.1,0.2c1.3,3,4.9,5.9,10.4,8.6c-1.3-2.1-2.2-4.1-2.7-6
					c-0.1-0.5-0.2-1.1-0.3-1.6C72.9,211.4,70.4,211,68,210.6 M207.7,210.4c6.7,2.2,13,4.4,18.9,6.7c6.3,2.5,13,5.5,18.8,8.7
					c6.9-2.5,12-5.5,14.6-9.2c1.5-2,1.8-3.9,1-5.8c-8.4-0.6-18.9-1.6-30.5-3.2C223.2,208.7,215.6,209.6,207.7,210.4 M212.9,223.4
					c4.5,0,8.6,0.3,12.1,0.7c6.1,0.8,10.3,2.1,12.6,4.1c1.3-0.3,2.5-0.7,3.7-1c-4.5-2.3-9.8-4.8-15.9-7.2
					c-7.8-3.1-16.6-6.1-25.9-8.8c-3.4,0.3-6.9,0.6-10.4,0.9C199.4,215.5,207.9,219.4,212.9,223.4 M216.1,226.5
					c1.5,1.9,2.1,3.7,2.1,5.3c5.4-0.7,10.4-1.6,15-2.6c-1.8-0.8-4.5-1.5-8.6-2C222,226.8,219.2,226.6,216.1,226.5 M84.7,222
					c11.7,4.3,28.8,7.9,49.6,10.1c3,0.3,6.1,0.6,9.2,0.9c20.7-5.6,45.2-9,64-9.5c-6.2-3.9-15.8-7.6-27-10.8
					c-37.1,2.5-75.5,2.7-101.8-0.4c0,0.1,0.1,0.3,0.1,0.4C79.5,215.4,81.5,218.6,84.7,222 M153.4,233.6c21.3,1.2,43.3,0.8,61.8-1.4
					c0-1.1-0.4-2.5-1.9-4.2c-0.4-0.5-0.9-1-1.5-1.5c-0.2,0-0.4,0-0.7,0C194.3,226.4,172.7,229.1,153.4,233.6 M90.5,227.2
					c6.5,5.2,15.6,10.5,27,15.1c5.1-2.6,11.2-4.9,17.8-7.1c-0.5,0-0.9-0.1-1.4-0.1C123.7,234,105.7,231.7,90.5,227.2 M239.4,230.8
					c0.1,0.3,0.2,0.6,0.2,0.9c0.9,6.1-9.5,13.9-31.7,23.8c7.4-0.4,15-1.2,22.9-2.4c22.3-3.3,26.2-8.4,26.5-11.1
					c0.4-3.5-4-8-12.4-12.9C243.2,229.7,241.4,230.3,239.4,230.8 M121.4,243.8c15.6,5.9,35.1,10.4,57.9,11.7
					c16.2-6,29.8-13.4,34.5-20.1c-21.1,2.4-46.2,2.5-70.2,0.6C135.3,238.3,127.6,240.9,121.4,243.8 M186.8,255.9
					c4.1,0.1,8.2,0.1,12.5,0c2.3-1,4.7-2.1,7.2-3.2c28-12.5,30.4-18.6,30.1-20.6c0-0.2-0.1-0.3-0.2-0.5c-5.7,1.4-12,2.5-18.7,3.4
					c-0.1,0.2-0.2,0.3-0.2,0.5C213.9,242.3,201.9,249.6,186.8,255.9 M104.5,260c-0.2,2.7,1.1,4.7,4.1,6.1c10.7,5,38.7,0.3,63.4-8
					c-21.2-1.9-39.7-6.4-54.7-12.3c-6,3.2-10.3,6.8-11.8,10.5C105.4,256.5,104.9,257.9,104.5,260 M104.5,267.3
					c0.5,2.1,1.4,4.1,3.2,5.8c7.1,6.8,27.6,9.5,84.1-14c-4.1,0-8.2-0.1-12.2-0.4c-26.8,9.9-59.8,16.1-72.3,10.2
					C106.2,268.5,105.3,267.9,104.5,267.3 M124,280.9c-8.4,0-14.6-1.9-18.5-5.6c-5.2-5-4.9-11.9-4.1-16.2c0.2-1.3,0.5-2.6,1.1-4
					c1.6-3.9,5.5-7.4,11.1-10.7c-14.1-5.9-24.7-13-31.1-19.9c-8.5-3.2-15.1-7.4-17.3-12.5c-0.3-0.7-0.5-1.4-0.7-2.1
					c-8.6-1.9-14.7-4.4-17.3-7.5c-1.7-2.1-2-4.6-0.7-7.1c5.8-11.3,36.4-14.6,60.3-15.3c-5.1-1.9-9.8-3.9-14-6
					c-24.3-0.4-41.5-1.4-43.9-1.6c-9.1-0.5-39-3.2-40-13.7c-0.4-4,3.6-7.9,12-11.5c-2.8-1.9-4.1-3.8-4.2-5.6c-0.1-2,1.2-3.7,3.9-5.2
					c7.6-4,24.1-3.2,43.5-0.2c-10.2-2.7-18.8-5.6-25-8.7c-8-3.9-12-7.8-12.1-12c-0.2-4.4,3.9-8.2,12.1-11.1
					c6.5-2.3,16.1-4.2,27.7-5.6c-0.5-0.9-0.8-1.9-1-2.8c-0.2-0.8-0.3-1.8-0.3-2.9c-10.2,1.6-18.7,1.9-24.4,0.5
					c-1.3-0.3-4.7-1.1-4.8-3.7c-0.1-1.9,1.4-4.1,12.1-7.7c-0.5-0.6-1-1.3-1.3-2.1c-0.9-2.1-1.4-5.5,2-9.9c6.4-8.6,26.1-18.7,58.5-23
					c26.5-19.3,77-51.9,97.4-36.2c5,3.8,6.1,8.9,3.4,14.7c-3.3,6.9-11.9,14.5-23.7,22c2.3,0.3,4.7,0.6,7.1,0.9
					c8,1.1,15.2,2.3,21.7,3.6c5.4-0.5,10.6-0.7,15.5-0.8c19.6-1.3,35.8-1,38.6,3.2c0.6,0.9,1.2,2.7-0.8,5.1c-2.1,2.5-5.5,4.8-10,7
					c-0.4,0.8-1,1.7-1.6,2.6c1.1,1.7,1.7,3.4,1.7,5.2c0.1,5.2-4.3,10.3-11.6,15.1c16,5.2,27,11,29.2,16.8c0.2,0.6,0.4,1.3,0.4,1.9
					c8.3,2.5,13.4,5.5,15.6,8.9c4.8,2.4,8.4,5.1,10.6,7.9c3.1,4.1,3,8.6-0.1,13c-2.9,4-7.1,7.6-12.3,10.8
					c8.4,4.6,13.9,8.8,14.9,12.3c0.8,2.5,0.2,6-6.7,8.3c-2.8,0.9-5.7,1.8-8.7,2.6c6.4,4.8,9.4,9.3,8.7,13.2
					c-0.9,5.5-9.2,10.3-25.5,14.6c3.6,1.9,6.3,3.5,7.8,4.8c0.6,0.5,2.6,2.2,1.9,4.1c-0.6,1.8-2.9,2.1-4.8,2.3
					c-3,0.2-7.2,0.1-12.1-0.1c0.6,2.5,0,5-1.8,7.4c-2.6,3.6-7.4,6.7-13.8,9.3c7.3,4.6,12.3,9.6,11.8,14.6
					c-0.8,6.5-10.3,11-29.2,13.8c-10.8,1.6-21.3,2.5-31.3,2.8C166.1,273.6,140.7,280.9,124,280.9"/>
			</g>
		</g>
	</g>
</g>
</svg>
