<?xml version="1.0" encoding="utf-8"?>
<!-- Generator: Adobe Illustrator 19.2.0, SVG Export Plug-In . SVG Version: 6.00 Build 0)  -->
<svg version="1.1" id="Layer_1" xmlns="http://www.w3.org/2000/svg" xmlns:xlink="http://www.w3.org/1999/xlink" x="0px" y="0px"
	 viewBox="0 0 43 45.8" style="enable-background:new 0 0 43 45.8;" xml:space="preserve">
<style type="text/css">
	.st0{fill:#928276;}
</style>
<g>
	<path class="st0" d="M42.9,22.9c-0.6-9.5-7.8-17.7-17.1-19.6c-0.3-0.1-0.6-0.1-0.9-0.2L24.5,3V0.2c0-0.1-0.1-0.2-0.2-0.2h-5.7
		c-0.1,0-0.2,0.1-0.2,0.2V3c-0.2,0-0.5,0.1-0.7,0.1c-0.6,0.1-1.2,0.2-1.8,0.4C7.4,6.2,2.1,11.8,0.4,20.3C-1.5,29.8,3,38.9,11.8,43.5
		c2.3,1.2,4.9,2,7.6,2.2c0.1,0,0.2,0,0.2,0c0,0,0.1,0,0.2,0h3.4c0,0,0,0,0,0c0.3,0,0.6-0.1,0.9-0.1c0.6-0.1,1.2-0.2,1.8-0.3
		c6.5-1.4,11.4-5.1,14.6-11C42.4,30.9,43.2,27,42.9,22.9z M22.9,39.8h-2.8c-0.1,0-0.2,0.1-0.2,0.2v2.5C12.4,42,4.2,35.7,3.4,25.9
		h2.5c0.1,0,0.2-0.1,0.2-0.2v-2.8c0-0.1-0.1-0.2-0.2-0.2H3.4c0.8-9.2,8.3-16.4,17.6-16.6c9.7-0.3,17.9,7.1,18.7,16.6h-2.5
		c-0.1,0-0.2,0.1-0.2,0.2v2.9c0,0.1,0.1,0.2,0.2,0.2h2.5c-0.6,8.6-7.8,15.8-16.5,16.5v-2.5C23.1,39.8,23,39.8,22.9,39.8z"/>
	<path class="st0" d="M30.2,33.3c0,0,0.1,0,0.1,0c0,0,0.1,0,0.1-0.1l0.1-0.1c0.1-0.1,0.1-0.2,0-0.2l-0.1-0.2
		c-0.1-0.1-0.2-0.2-0.3-0.3l-0.9-1.2c-1.6-2-3.1-4-4.7-6c-0.1-0.2-0.2-0.3-0.1-0.5c0.2-0.9,0-1.7-0.6-2.4c-0.7-0.9-1.8-1.3-2.9-1.1
		c-0.2,0-0.4,0-0.5-0.1c-1.9-1.5-3.8-2.9-5.7-4.4l-1.7-1.3c-0.1-0.1-0.2-0.1-0.2-0.2l-0.1-0.1c-0.1,0-0.1,0-0.2,0
		c-0.1,0-0.1,0.1-0.1,0.2c0,0.2,0.1,0.3,0.2,0.4l1.2,1.5c1.5,2,3,3.9,4.5,5.9c0.1,0.1,0.1,0.3,0.1,0.4c-0.2,1,0.1,1.9,0.6,2.6
		c0.7,0.8,1.8,1.2,2.9,1c0.1,0,0.3,0,0.4,0.1c0.8,0.6,1.7,1.3,2.5,1.9L30.2,33.3z"/>
	<path class="st0" d="M18.7,14.5h1.4c0.1,0,0.2-0.1,0.2-0.2v-4.3l0.3,0.6c0.6,1.2,1.2,2.4,1.8,3.5c0.1,0.2,0.3,0.4,0.4,0.4
		c0.3,0,0.5,0,0.8,0l0.8,0c0.1,0,0.2-0.1,0.2-0.2V7.3c0-0.1-0.1-0.2-0.2-0.2H23c-0.1,0-0.2,0.1-0.2,0.2v4l-0.3-0.7
		c-0.5-1-1-2.1-1.6-3.1c0,0-0.2-0.4-0.5-0.4c-0.3,0-0.5,0-0.8,0l-0.9,0c-0.1,0-0.2,0.1-0.2,0.2v7.1C18.5,14.5,18.6,14.5,18.7,14.5z"
		/>
</g>
</svg>
