<?xml version="1.0" encoding="utf-8"?>
<!-- Generator: Adobe Illustrator 19.2.0, SVG Export Plug-In . SVG Version: 6.00 Build 0)  -->
<svg version="1.1" id="Layer_1" xmlns="http://www.w3.org/2000/svg" xmlns:xlink="http://www.w3.org/1999/xlink" x="0px" y="0px"
	 viewBox="0 0 42.5 45" style="enable-background:new 0 0 42.5 45;" xml:space="preserve">
<style type="text/css">
	.st0{fill:none;stroke:#D9AB28;stroke-width:2.79;stroke-miterlimit:10;}
</style>
<g>
	<g>
		<path class="st0" d="M11.5,9.2c-0.7-1.1-2.4,1.6-4,2.5c0,0-6.5,7.6-6.1,16.5s9.2,14.7,12.4,15.1c3.2,0.3,12.9,0.6,15.5,0.1
			c2.6-0.6,12.3-5.3,11.8-15.4c-0.4-10.2-5.5-14.6-5.5-14.6s-1.4,0-2.5-1.2s-1.5-2.1-2.4-1.3c-1,0.8-3,1.9-4.6,0.9
			c-1.5-1-2.9-2.7-4-2C20.9,10.3,15,14.7,11.5,9.2z M6.9,8.9h27.7c0,0,1.2,3.3,3.2,3.6c0,0-1.9,1.8-3.9,0.2c-2-1.6-2.2-2.7-3.5-2
			c-1.3,0.8-2,1.5-3.8,1.2c-1.8-0.3-2.6-2.2-5.2-2.1c-2.6,0.1-3.5,2.1-5.7,2c-2.2-0.1-3.2-1.9-4.7-2c-1.5-0.1-3.2,3.7-6.9,2.6
			C4.2,12.5,6.4,10.4,6.9,8.9z M34,7.9H7.7c-1.3,0-2.3-1-2.3-2.3V3.7c0-1.3,1-2.3,2.3-2.3H34c1.3,0,2.3,1,2.3,2.3v1.9
			C36.3,6.9,35.3,7.9,34,7.9z"/>
	</g>
</g>
</svg>
