<?xml version="1.0" encoding="utf-8"?>
<!-- Generator: Adobe Illustrator 19.2.0, SVG Export Plug-In . SVG Version: 6.00 Build 0)  -->
<svg version="1.1" id="Layer_1" xmlns="http://www.w3.org/2000/svg" xmlns:xlink="http://www.w3.org/1999/xlink" x="0px" y="0px"
	 viewBox="0 0 45.4 40.5" style="enable-background:new 0 0 45.4 40.5;" xml:space="preserve">
<style type="text/css">
	.st0{fill:none;stroke:#493728;stroke-width:3.111;stroke-miterlimit:10;}
</style>
<g>
	<g>
		<path class="st0" d="M22.6,38c-2.9,0-5.7,0.1-8.6-0.1c-1-0.1-2.2-0.8-2.8-1.5c-3-4.8-5.7-9.5-8.4-14.4c-0.5-0.9-0.5-2.5,0-3.3
			c2.7-4.9,5.6-9.6,8.3-14.5c0.7-1.2,1.4-1.8,3-1.8c5.6,0.1,11.3,0,17,0.1c1,0,2.3,0.7,2.8,1.5c3,4.9,5.9,9.8,8.7,14.8
			c0.4,0.8,0.4,2.1,0,2.9c-2.8,5-5.6,9.8-8.6,14.6c-0.5,0.8-1.7,1.5-2.7,1.5C28.4,38.1,25.6,38,22.6,38z"/>
	</g>
</g>
</svg>
