<?xml version="1.0" encoding="utf-8"?>
<!-- Generator: Adobe Illustrator 19.2.0, SVG Export Plug-In . SVG Version: 6.00 Build 0)  -->
<svg version="1.1" id="Layer_1" xmlns="http://www.w3.org/2000/svg" xmlns:xlink="http://www.w3.org/1999/xlink" x="0px" y="0px"
	 viewBox="0 0 44.6 43.7" style="enable-background:new 0 0 44.6 43.7;" xml:space="preserve">
<style type="text/css">
	.st0{fill:none;stroke:#973C61;stroke-width:2.576;stroke-miterlimit:10;}
</style>
<g>
	<g>
		<path class="st0" d="M21.9,31.5c0,2.3-0.4,4.6-1.4,6.8c-0.1,0.2-0.2,0.5-0.3,0.7c-1.8,3.5-4.6,4.3-8,2.3c-2-1.2-3.8-2.8-5.1-4.7
			C5.6,34.3,5.6,32,7.6,30c1.4-1.4,3-2.5,4.6-3.8c0.6-0.4,1.2-0.8,1.7-1.4c-1.2,0.2-2.3,0.6-3.5,0.6c-1.7,0-3.5,0.1-5.2-0.3
			c-2.8-0.6-4.2-2.9-3.7-5.7c0.5-2.8,1.6-5.4,3.4-7.5c1.5-1.7,3.3-2.3,5.4-1.4c1.4,0.6,2.7,1.4,4,2.2c1.2,0.8,2.3,1.7,3.7,2.4
			c-0.2-0.3-0.3-0.5-0.5-0.8c-1.3-2-2.3-4.2-2.7-6.7c-0.5-3.5,1.4-5.8,4.8-6.2c2.3-0.2,4.5,0,6.6,0.6c3.5,1,4.8,3.3,4,6.8
			c-0.4,1.9-1.1,3.7-1.7,5.6c-0.1,0.4-0.2,0.8-0.5,1.1c1.1-1,2.2-2,3.3-2.9c1.6-1.3,3.3-2.4,5.4-2.7c1.8-0.2,3.2,0.4,4.2,1.9
			c1.9,2.8,2.6,6,2.3,9.3c-0.3,2.8-2.1,4.3-5,4.5c-2.5,0.1-5,0-7.4,0c0,0.1,0,0.2,0,0.3c0.8,0.3,1.6,0.6,2.3,1c2,1,3.9,2.2,5.3,4
			c1.7,2.2,1.5,4.6-0.4,6.6c-2,2.1-4.4,3.5-7.2,4.2c-2.4,0.6-4.3-0.1-5.5-2.2c-1-1.7-1.6-3.6-2.3-5.4c-0.3-0.8-0.6-1.7-0.9-2.5
			C22.1,31.5,22,31.5,21.9,31.5z"/>
	</g>
</g>
</svg>
